…
``` r
# Check for missing values in each raw-data column
df %>%
  summarise(across(everything(), ~sum(is.na(.)))) %>%
  pivot_longer(everything(),
               names_to = "column",
               values_to = "missing_values") %>%                                  
  arrange(desc(missing_values))
```

    ## # A tibble: 33 × 2
    ##    column                     missing_values
    ##    <chr>                               <int>
    ##  1 Total                              106920
    ##  2 Data_Value_Unit                    106260
    ##  3 Sex                                102960
    ##  4 Data_Value_Footnote_Symbol          97666
    ##  5 Data_Value_Footnote                 97666
    ##  6 Education                           95040
    ##  7 Age(years)                          87120
    ##  8 Income                              83160
    ##  9 Race/Ethnicity                      79200
    ## 10 Data_Value                          13214
    ## # ℹ 23 more rows
…
